…
``` r
summary = homicides %>%
  group_by(city) %>%
  summarise(
    total_homicides = n(),
    unsolved = sum(disposition == "Closed without arrest" | disposition == "Open/No arrest")
  )

summary
```

    ## # A tibble: 50 × 3
    ##    city        total_homicides unsolved
    ##    <chr>                 <int>    <int>
    ##  1 Albuquerque             378      146
    ##  2 Atlanta                 973      373
    ##  3 Baltimore              2827     1825
    ##  4 Baton Rouge             424      196
    ##  5 Birmingham              800      347
    ##  6 Boston                  614      310
    ##  7 Buffalo                 521      319
    ##  8 Charlotte               687      206
    ##  9 Chicago                5535     4073
    ## 10 Cincinnati              694      309
    ## # … with 40 more rows
…
